{
  "manifestVersion": "3.2",
  "proxies": [
    {
      "address": "0xe7f1725E7734CE288F8367e1Bb143E90bb3F0512",
      "txHash": "0xd00f9638a655a72335adf02e923b6f9db311f0991d5cf092e0ca172f257cda77",
      "kind": "uups"
    }
  ],
  "impls": {
    "7185f1e438fc60fbbea403c6e0aa2880237f7eaf1a2182f17050e3ab5bdcc3cb": {
      "address": "0x5FbDB2315678afecb367f032d93F642f64180aa3",
      "txHash": "0x30288419aec3a528b301f8ae97c454965cbc38ee452a2a96348571e74cc0c95d",
      "layout": {
        "storage": [
          {
            "contract": "Initializable",
            "label": "_initialized",
            "type": "t_bool",
            "src": "@openzeppelin/contracts-upgradeable/proxy/utils/Initializable.sol:21"
          },
          {
            "contract": "Initializable",
            "label": "_initializing",
            "type": "t_bool",
            "src": "@openzeppelin/contracts-upgradeable/proxy/utils/Initializable.sol:26"
          },
          {
            "contract": "ContextUpgradeable",
            "label": "__gap",
            "type": "t_array(t_uint256)50_storage",
            "src": "@openzeppelin/contracts-upgradeable/utils/ContextUpgradeable.sol:30"
          },
          {
            "contract": "OwnableUpgradeable",
            "label": "_owner",
            "type": "t_address",
            "src": "@openzeppelin/contracts-upgradeable/access/OwnableUpgradeable.sol:21"
          },
          {
            "contract": "OwnableUpgradeable",
            "label": "__gap",
            "type": "t_array(t_uint256)49_storage",
            "src": "@openzeppelin/contracts-upgradeable/access/OwnableUpgradeable.sol:77"
          },
          {
            "contract": "ERC1967UpgradeUpgradeable",
            "label": "__gap",
            "type": "t_array(t_uint256)50_storage",
            "src": "@openzeppelin/contracts-upgradeable/proxy/ERC1967/ERC1967UpgradeUpgradeable.sol:214"
          },
          {
            "contract": "UUPSUpgradeable",
            "label": "__gap",
            "type": "t_array(t_uint256)50_storage",
            "src": "@openzeppelin/contracts-upgradeable/proxy/utils/UUPSUpgradeable.sol:80"
          },
          {
            "contract": "Box",
            "label": "value",
            "type": "t_uint256",
            "src": "contracts/Box.sol:13"
          }
        ],
        "types": {
          "t_uint256": {
            "label": "uint256"
          },
          "t_array(t_uint256)50_storage": {
            "label": "uint256[50]"
          },
          "t_address": {
            "label": "address"
          },
          "t_array(t_uint256)49_storage": {
            "label": "uint256[49]"
          },
          "t_bool": {
            "label": "bool"
          }
        }
      }
    }
  }
}
